{
  "myoption": {
    "page": "services.pug",
    "pageopen": "services.html"
  },
  "blocks": {
    "page": []
  },
  "addCssBefore": [],
  "addCssAfter": [
    "./src/css/bootstrap.css",
  ],
  "cssDeveloper": [
  ],
  "singleCompiled": [],
  "addJsBefore": [
    "src/js/jquery.min.js",
    "src/js/jquery-migrate.min.js",
    "src/js/dist/svg4everybody.js",
    "src/js/isMobile.min.js",
    "src/js/dist/owl.carousel.min.js",
    "src/js/perfect-scrollbar.min.js",
    "src/js/swipe.min.js",
    "src/js/nouislider.js",
    "src/js/dist/ofi.js",
    "src/js/jquery.grid.js",
    "src/js/anime.min.js",
    "src/js/lightbox.min.js",
    "src/js/revealFx.js"
  ],
  "addJsAfter": [],
  "jsDeveloper": [],
  "addImages": [
    "./src/img/*.{jpg,jpeg,gif,png,svg,ico}"
  ],
  "copiedCss": [],
  "copiedJs": [
    "./src/js/global-script.js"
  ],
  "dirs": {
    "srcPath": "./src/",
    "buildPath": "./build/",
    "blocksDirName": "blocks"
  }
}
